^E:\PERFORMANCEREPORTER\PERFORMANCE\DEMOPROJECT\FRAMEPRO.CPP|E:\PERFORMANCEREPORTER\PERFORMANCE\DEMOPROJECT\MAIN.CPP|E:\PERFORMANCEREPORTER\PERFORMANCE\DEMOPROJECT\THREAD.CPP
E:\PERFORMANCEREPORTER\PERFORMANCE\DEMOPROJECT\DEBUG\VC141.PDB
E:\PERFORMANCEREPORTER\PERFORMANCE\DEMOPROJECT\DEBUG\VC141.IDB
E:\PERFORMANCEREPORTER\PERFORMANCE\DEMOPROJECT\DEBUG\THREAD.OBJ
E:\PERFORMANCEREPORTER\PERFORMANCE\DEMOPROJECT\DEBUG\MAIN.OBJ
E:\PERFORMANCEREPORTER\PERFORMANCE\DEMOPROJECT\DEBUG\FRAMEPRO.OBJ
^E:\PERFORMANCEREPORTER\PERFORMANCE\DEMOPROJECT\THREAD.CPP
E:\PERFORMANCEREPORTER\PERFORMANCE\DEMOPROJECT\DEBUG\VC141.PDB
^E:\PERFORMANCEREPORTER\PERFORMANCE\DEMOPROJECT\FRAMEPRO.CPP|E:\PERFORMANCEREPORTER\PERFORMANCE\DEMOPROJECT\MAIN.CPP
E:\PERFORMANCEREPORTER\PERFORMANCE\DEMOPROJECT\DEBUG\VC141.PDB
E:\PERFORMANCEREPORTER\PERFORMANCE\DEMOPROJECT\DEBUG\VC141.IDB
E:\PERFORMANCEREPORTER\PERFORMANCE\DEMOPROJECT\DEBUG\MAIN.OBJ
^E:\PERFORMANCEREPORTER\PERFORMANCE\DEMOPROJECT\MAIN.CPP
E:\PERFORMANCEREPORTER\PERFORMANCE\DEMOPROJECT\DEBUG\MAIN.OBJ
^E:\PERFORMANCEREPORTER\PERFORMANCE\DEMOPROJECT\FRAMEPRO.CPP
E:\PERFORMANCEREPORTER\PERFORMANCE\DEMOPROJECT\DEBUG\VC141.PDB
E:\PERFORMANCEREPORTER\PERFORMANCE\DEMOPROJECT\DEBUG\VC141.IDB
E:\PERFORMANCEREPORTER\PERFORMANCE\DEMOPROJECT\DEBUG\FRAMEPRO.OBJ
^E:\PROFILER\PROJECT\PERFORMANCE\DEMOPROJECT\FRAMEPRO.CPP|E:\PROFILER\PROJECT\PERFORMANCE\DEMOPROJECT\MAIN.CPP|E:\PROFILER\PROJECT\PERFORMANCE\DEMOPROJECT\THREAD.CPP
E:\PROFILER\PROJECT\PERFORMANCE\DEMOPROJECT\DEBUG\VC141.PDB
E:\PROFILER\PROJECT\PERFORMANCE\DEMOPROJECT\DEBUG\VC141.IDB
E:\PROFILER\PROJECT\PERFORMANCE\DEMOPROJECT\DEBUG\THREAD.OBJ
E:\PROFILER\PROJECT\PERFORMANCE\DEMOPROJECT\DEBUG\MAIN.OBJ
E:\PROFILER\PROJECT\PERFORMANCE\DEMOPROJECT\DEBUG\FRAMEPRO.OBJ
^E:\PROFILER\PROJECT\PERFORMANCE\DEMOPROJECT\FRAMEPRO.CPP
E:\PROFILER\PROJECT\PERFORMANCE\DEMOPROJECT\DEBUG\VC141.PDB
^E:\PROFILER\PROJECT\PERFORMANCE\DEMOPROJECT\MAIN.CPP
E:\PROFILER\PROJECT\PERFORMANCE\DEMOPROJECT\DEBUG\VC141.PDB
^E:\PROFILER\PROJECT\PERFORMANCE\DEMOPROJECT\THREAD.CPP
E:\PROFILER\PROJECT\PERFORMANCE\DEMOPROJECT\DEBUG\VC141.PDB
