^E:\PERFORMANCEREPORTER\PERFORMANCE\DEMOPROJECT\FRAMEPRO.CPP|E:\PERFORMANCEREPORTER\PERFORMANCE\DEMOPROJECT\MAIN.CPP|E:\PERFORMANCEREPORTER\PERFORMANCE\DEMOPROJECT\THREAD.CPP
E:\PERFORMANCEREPORTER\PERFORMANCE\DEMOPROJECT\X64\DEBUG\VC141.PDB
E:\PERFORMANCEREPORTER\PERFORMANCE\DEMOPROJECT\X64\DEBUG\VC141.IDB
E:\PERFORMANCEREPORTER\PERFORMANCE\DEMOPROJECT\X64\DEBUG\THREAD.OBJ
E:\PERFORMANCEREPORTER\PERFORMANCE\DEMOPROJECT\X64\DEBUG\MAIN.OBJ
E:\PERFORMANCEREPORTER\PERFORMANCE\DEMOPROJECT\X64\DEBUG\FRAMEPRO.OBJ
^E:\PERFORMANCEREPORTER\PERFORMANCE\DEMOPROJECT\MAIN.CPP
E:\PERFORMANCEREPORTER\PERFORMANCE\DEMOPROJECT\X64\DEBUG\VC141.PDB
^E:\PERFORMANCEREPORTER\PERFORMANCE\DEMOPROJECT\THREAD.CPP
E:\PERFORMANCEREPORTER\PERFORMANCE\DEMOPROJECT\X64\DEBUG\VC141.PDB
^E:\PERFORMANCEREPORTER\PERFORMANCE\DEMOPROJECT\FRAMEPRO.CPP
E:\PERFORMANCEREPORTER\PERFORMANCE\DEMOPROJECT\X64\DEBUG\VC141.PDB
E:\PERFORMANCEREPORTER\PERFORMANCE\DEMOPROJECT\X64\DEBUG\VC141.IDB
E:\PERFORMANCEREPORTER\PERFORMANCE\DEMOPROJECT\X64\DEBUG\FRAMEPRO.OBJ
